…
## Problem 1: Instacart Data

We will be working with the “The Instacart Online Grocery Shopping
Dataset 2017”.

### Data overview and description

``` r
data("instacart")
instacart 
```

    ## # A tibble: 1,384,617 × 15
    ##    order_id product_id add_to_…¹ reord…² user_id eval_…³ order…⁴ order…⁵ order…⁶
    ##       <int>      <int>     <int>   <int>   <int> <chr>     <int>   <int>   <int>
    ##  1        1      49302         1       1  112108 train         4       4      10
    ##  2        1      11109         2       1  112108 train         4       4      10
    ##  3        1      10246         3       0  112108 train         4       4      10
    ##  4        1      49683         4       0  112108 train         4       4      10
    ##  5        1      43633         5       1  112108 train         4       4      10
    ##  6        1      13176         6       0  112108 train         4       4      10
    ##  7        1      47209         7       0  112108 train         4       4      10
    ##  8        1      22035         8       1  112108 train         4       4      10
    ##  9       36      39612         1       0   79431 train        23       6      18
    ## 10       36      19660         2       1   79431 train        23       6      18
    ## # … with 1,384,607 more rows, 6 more variables: days_since_prior_order <int>,
    ## #   product_name <chr>, aisle_id <int>, department_id <int>, aisle <chr>,
    ## #   department <chr>, and abbreviated variable names ¹​add_to_cart_order,
    ## #   ²​reordered, ³​eval_set, ⁴​order_number, ⁵​order_dow, ⁶​order_hour_of_day
…
Using `group_by`, and `summarise`, we can determine the number of
aisles, and the most popular aisles customers order from in the dataset.

``` r
aisles = instacart %>% 
  group_by(aisle_id, aisle) %>% 
  summarise(
    n_obs = n()) %>% 
  arrange(desc(n_obs))

aisles
```

    ## # A tibble: 134 × 3
    ## # Groups:   aisle_id [134]
    ##    aisle_id aisle                          n_obs
    ##       <int> <chr>                          <int>
    ##  1       83 fresh vegetables              150609
    ##  2       24 fresh fruits                  150473
    ##  3      123 packaged vegetables fruits     78493
    ##  4      120 yogurt                         55240
    ##  5       21 packaged cheese                41699
    ##  6      115 water seltzer sparkling water  36617
    ##  7       84 milk                           32644
    ##  8      107 chips pretzels                 31269
    ##  9       91 soy lactosefree                26240
    ## 10      112 bread                          23635
    ## # … with 124 more rows
…
accel_data
```

    ## # A tibble: 50,400 × 6
    ##     week day_id day    weekend minute activity
    ##    <dbl>  <dbl> <fct>  <lgl>    <dbl>    <dbl>
    ##  1     1      1 Friday FALSE        1     88.4
    ##  2     1      1 Friday FALSE        2     82.2
    ##  3     1      1 Friday FALSE        3     64.4
    ##  4     1      1 Friday FALSE        4     70.0
    ##  5     1      1 Friday FALSE        5     75.0
    ##  6     1      1 Friday FALSE        6     66.3
    ##  7     1      1 Friday FALSE        7     53.8
    ##  8     1      1 Friday FALSE        8     47.8
    ##  9     1      1 Friday FALSE        9     55.5
    ## 10     1      1 Friday FALSE       10     43.0
    ## # … with 50,390 more rows
…
### Plotting activity through the day

Accelerometer data allows the inspection activity over the course of the
day. Using `summarise`, we can get the mean activity counts for each
minute of the day, for each day of the week.

``` r
daily_activity = accel_data %>% 
  group_by(day, minute) %>% 
  summarise(mean_activity = mean(activity))

daily_activity
```

    ## # A tibble: 10,080 × 3
    ## # Groups:   day [7]
    ##    day    minute mean_activity
    ##    <fct>   <dbl>         <dbl>
    ##  1 Sunday      1           9.4
    ##  2 Sunday      2          46  
    ##  3 Sunday      3          15.6
    ##  4 Sunday      4           1  
    ##  5 Sunday      5           1  
    ##  6 Sunday      6           1  
    ##  7 Sunday      7          33.4
    ##  8 Sunday      8           1  
    ##  9 Sunday      9           1  
    ## 10 Sunday     10           1  
    ## # … with 10,070 more rows
…
## Problem 3: NOAA Data

### Clean and load data

``` r
data("ny_noaa")
ny_noaa
```

    ## # A tibble: 2,595,176 × 7
    ##    id          date        prcp  snow  snwd tmax  tmin 
    ##    <chr>       <date>     <int> <int> <int> <chr> <chr>
    ##  1 US1NYAB0001 2007-11-01    NA    NA    NA <NA>  <NA> 
    ##  2 US1NYAB0001 2007-11-02    NA    NA    NA <NA>  <NA> 
    ##  3 US1NYAB0001 2007-11-03    NA    NA    NA <NA>  <NA> 
    ##  4 US1NYAB0001 2007-11-04    NA    NA    NA <NA>  <NA> 
    ##  5 US1NYAB0001 2007-11-05    NA    NA    NA <NA>  <NA> 
    ##  6 US1NYAB0001 2007-11-06    NA    NA    NA <NA>  <NA> 
    ##  7 US1NYAB0001 2007-11-07    NA    NA    NA <NA>  <NA> 
    ##  8 US1NYAB0001 2007-11-08    NA    NA    NA <NA>  <NA> 
    ##  9 US1NYAB0001 2007-11-09    NA    NA    NA <NA>  <NA> 
    ## 10 US1NYAB0001 2007-11-10    NA    NA    NA <NA>  <NA> 
    ## # … with 2,595,166 more rows
…
ny_noaa 
```

    ## # A tibble: 2,595,176 × 9
    ##    id           year month      day  prcp  snow  snwd  tmax  tmin
    ##    <chr>       <dbl> <chr>    <dbl> <dbl> <int> <int> <dbl> <dbl>
    ##  1 US1NYAB0001  2007 November     1    NA    NA    NA    NA    NA
    ##  2 US1NYAB0001  2007 November     2    NA    NA    NA    NA    NA
    ##  3 US1NYAB0001  2007 November     3    NA    NA    NA    NA    NA
    ##  4 US1NYAB0001  2007 November     4    NA    NA    NA    NA    NA
    ##  5 US1NYAB0001  2007 November     5    NA    NA    NA    NA    NA
    ##  6 US1NYAB0001  2007 November     6    NA    NA    NA    NA    NA
    ##  7 US1NYAB0001  2007 November     7    NA    NA    NA    NA    NA
    ##  8 US1NYAB0001  2007 November     8    NA    NA    NA    NA    NA
    ##  9 US1NYAB0001  2007 November     9    NA    NA    NA    NA    NA
    ## 10 US1NYAB0001  2007 November    10    NA    NA    NA    NA    NA
    ## # … with 2,595,166 more rows
…
